# From http://en.wikipedia.org/wiki/Welsh_toponymy
ANGLESEY,YNYS MÔN,YNYS MON
BANGOR-ON-DEE,BANGOR IS-COED
BARDSEY,YNYS ENLLI
BLACKWOOD,COED-DUON
BRECON,ABERHONDDU
BRIDGEND,PEN-Y-BONT,PEN-Y-BONT AR OGWR
BUILTH,LLANFAIR-YM-MUALLT
CARDIGAN,ABERTEIFI
CHEPSTOW,CAS-GWENT
CHIRK,Y WAUN
COWBRIDGE,Y BONT-FAEN
FISHGUARD,ABERGWAUN
HAWARDEN,PENARLÂG,PENARLAG
HAY-ON-WYE,Y GELLI,HAY ON WYE,HAY
HOLYHEAD,CAERGYBI
KNIGHTON,TREF-Y-CLAWDD
MENAI BRIDGE,PORTHAETHWY
MILFORD,ABERDAUGLEDDAU
MOLD,YR WYDDGRUG
MONMOUTH,TREFYNWY
MONTGOMERY,TREFALDWYN
MOUNTAIN ASH,ABERPENNAR
NEATH,CASTELL-NEDD
NEWPORT-ON-USK,CASNEWYDD,CASNEWYDD-AR-WYSG
NEWPORTTREFDRAETH
NEW RADNOR,MAESYFED
NEWTOWN,Y DRENEWYDD
PRESTEIGNE,LLANANDRAS
SNOWDON,YR WYDDFA
ST. ASAPH,LLANELWY,SAINT ASAPH
SWANSEA,ABERTAWE
USK,BRYNBUGA
WELSHPOOL,Y TRALLWNG
LLUNDAIN,LONDON
CERNYW,CORNWALL
DYFNAINT,DEVON
EBRAUC,EFROG,YORK
CAER,CAERLLEON,CHESTER
CAERLOYW,GLOUCESTER
CAERWRAGON,WORCESTER
CAERGRAWNT,CAMBRIDGE
CAERWYNT,WINCHESTER
RHYDYCHEN,OXFORD
GWLAD-YR-HAF,SOMERSET
BRYSTE,BRISTOL
LERPWL,LIVERPOOL
ROSS-ON-WYE,RHOSAN-AR-WY
LEOMINSTER,LLANLLENI
LLWYDLO,LUDLOW
HENFFORDD,HEREFORD
SHREWSBURY,YR AMWYTHING
