# Others
FOULKES,FAWKES
ALBRECHT,ALBRIGHT
JONSSON,JOHNSON
ZHADKOWSKYI,ZADKOWSKI
THOMAN,THOMAS
COHEN,COHN,KAHN
KROEBER,GROVER,CROWER
WONG,WRONG,WHONG,HUANG
WANG,HWANG,WANG
# http://abcnews.go.com/blogs/headlines/2009/09/how-many-different-ways-can-you-spell-gaddafi/
AL QATHAFI,AL-GATHAFI,AL-QADHAFI,EL GADDAFI,EL KADHAFI,EL KAZZAFI,EL QATHAFI,GADAFI,GADDAFI,GADHAFI,GATHAFI,GHADAFI,GHADDAFI,GHADDAFY,GHEDDAFI,KAD'AFI,KADAFFI,KADDAFI,KADHAFI,KAZZAFI,KHADAFY,KHADDAFI,QADDAFI